{
  "IsEncrypted": false,
  "Values": {
    "AzureWebJobsStorage": "DefaultEndpointsProtocol=https;AccountName=storageaccountmaili8d40;AccountKey=JUmok1TQbgkkuPHBn6UkKDX+S7WzEf3VGdPA7FEe1w3zF4hbNHSJ6I5hPFmDek4YW0LISzEIsnMV/AmHlHZSdw==;EndpointSuffix=core.windows.net",
    "FUNCTIONS_WORKER_RUNTIME": "dotnet"
  }
}